921432
98256
641347
880795
122093
730572
590339
458911
893056
935719
11679
147802
388913
1009884
304736
126091
261500
808985
884694
134007
804810721717709255385624523633707313075432339039503243517280491917845352176
79876096524507507939790253057026070858237643244915039284940028716384090644580
91316107690145699155854640076315204969863227595261551294767819420185443611991
96517088776974317165686524925175965891518083155913963093821291524251253062848
29554613968323999543087529763790164384403715021473217695488127885242162346322
100397937734326918728304336423774750774726055269975696204779041046392407490008
42618773695458733107361739462341483436406919621446012143230689454428152973482
98672994851936253895718268894147544348806597156105223986267392352850240460797
36089807573177998237372949398798457286444265401254079147123639162599654456435
12957350464931932369462807468099974478993978701447391398236780052582549662675
60484346006755578642911646003752504450329787859339133311425991352505340325333
23122281949016216606296785430690714786099446053168494488533791117872296761247
80597742783939344257638630811276224067970517023779124784494485289750603299829
109579168842018411604318092190208327149828569275768315574879040225616581474360
90430595705286538988548005269847419854393712332430654902082660422459911555787
47886312285623922603028780636029173768647255139518984982106078180989239631379
110945367337384530117678386941540851189809484442370771394363378906880940879876
105777531459575318155454663549415789807498457915076890307675434622732394003723
77926966199201609945808079096724715210729520722083981282732510369915069455424
1981837143685597706982470945536898891520513295417266958116165782144836272889
71334622645682563460844705174545668470234817033830032933857275193401176665922
62350058193652154415475956693228431996815417404200881429037538718492534271283
84639441771921993923978460211818231220207187522520352993747750804260422206692
62877663364426037723502027492748115941974088597287676306136122374380212605819
24421147638180621370922127174701263824834903740481555404054132338068352644843
40271925915488752094903939572116131167476733128402226552816477321786458676234
56389224495595757181203341407983026663642309692138427861059044698965930905096
60849019923061063523225226120441842435671331930865541458366017153469213813936
30549862574376403778392107314123700001961446103803468295188990575793832129184
102508727181266581434881504596531253062609595370366294216108584493672248429369
54740927070120049431495677865308611592030990746999938902485433179748267457585
57023689929911592845788785496269709989954481639106996805971361602847755482771
36035029045841687852341852071525217182687054110987792783874269569552137965154
77898575021767909025865608272934446332926506681928287959945188794727587737441
25418787504989350526517886671492129457544569961585439936544148884082118545947
113611456453455092756147288448826137569764043920882047000390167749827329439741
102480674978755075271001523327335588482860869276988780509044060004546346268983
28405365309360832470881898446275215603831471979117580504349107581744153739279
29435516982869897664912443571419056433559837872204637024603347416231445208995
60057562785977355710280366077324916839395331445340381850835329033199529924664
59859744369943063405201462180984876699368081963910622971351186704633991262719
14801380315061341933269768490955929525171532842993678442304182513633617952387
13319546965781514646409828032679204414399775424664149985589538942371046130465
73360959327828905203849871055669262155554876230008176563302909030077282284435
85465290631785945128039176302746024880556772361741020016836981003176506249462
99402321674368265842847113216100395337399451240123931968713198471049239215293
37985819279919117727748309857523125583004428900048780174610163974236105375924
100015811178890652800065366044950453483429116528571489026703964976895479814539
8719317232022700258789929482563350875028574110687145273376100191555847262558
111755171834462804543471081734490367634905662127932553030905744681257886936409
48961322207446983698308846900814972861469700180460061676998627458506548953073
84886300969976630649417426333589246441221943877654508138447227847697773469695
7267702377805707970234500926592940676455732397415942984161887436157418642653
113622836140681788798150068790902641904983037089242438983950230219321202863039
108870760349451588305829912122968983124476609074552533042605561661829438987400
90158697735323480126862095979930491683878285759556447308318584177057226352623
27582892478580492359703483501809560060362071667819644150949158912347481723654
50698033836474804017079678290144027525352503219574196397069066789184410698002
46444070004649794259881928522518061145046691513307981385130162341061130661455
61507095493149694551224109925700130020420888950128808992703815622889759648332
14275546348539930300731065159157184566400023354541380309472619124055540586377
99981263335458625445856829354660987821369303748433793838080190249385090152825
39546341461523895947760937934339568444688065124855585417171698452701355840832
60111425358706231664038708082062727573979944125144297942122280956444942991694
29052307213298292961805663398675267175347295748278363491617016875074990987161
92180905029685760597826110653939037253210316418395182509261380450943520546610
33505712960067105686618167310272234617830482561990698216223299133771789123296
31542325493212217353328411408365053835927076443430942499766060906303181713888
17786660623608727676166933729122826016775494096215776175362169630726782604537
87954509012262076607761994487825126354279416655759339068966274006214976033256
90748124656813406956341901940123216747853253398786085442882159252640063714709
37791488741342307263325859639351824799028362248174525623653537071360493646996
42535591023138877661552614987799018513011922923461776640404417803751258354232
33251635602769350718046379521413853105626993058777369070167691891188921026791
40260660569257713753184698643000192186406998890241918142900223752174250255976
24329691087957125379277892253270497293045572404021808578195392766499534045858
48168642081851241366939196051165999589737527366270037329970921405393049599130
105324471706268100842458999320408722814592512668932750148681941202967353811086
59707950032660925895270074684288204479688036930846263541385851489821837028787
52596466420391918873121345393256665968667890010874226017149855106455275445625
97100234833729506982963290101622421531323344586181108828859364693658905211182
18895759030330087819064874035337157593511079035809889405957547580355868762521
94673619055126966352453996912976495922407737223090135713047219128604684869953
68415075769454860937794024001577042887569047009269003149902176500404152785240
17852731377084762517751575394467281310220696130182160562280681937780207341457
66004875135663119797587890403253844535953917824251651728531216129403532168876
91144195408457707047442592057484456915418298407825394326700658068382912730961
17787249917098024237658523170024185285333874955922171564290107594033397262458
105230976945077581377494439364314646753738293805901427119350874549841552825051
77516993047612294864763047214351521505808202345459427830507750182088585046713
110391751028458323060122590166728954007515759544690366559970046847563519587348
78020671281855083887709942800407489161689173936294611202623391511159446839881
72320123002845165586274952768812284701414960358421980839780480988500641883712
114246493748846566388054830194070297179201622386111179076237138548324044555690
98305379630789278388119488323506856626984057036898977239279102679195668951561
78324150327873747846693118129105332347353887794597531292390933032137625407520
96223635144515217830091922732925591829677974402194763451845203006783070447320
6958377293666154703960910928213489296351337703700449719219235537169387292120
720859021363520593355144570232683969050002592108956296624051294649262779091
81016406587036649792965354455356521807498757869177025269208180573035739117086
7528830364651080537155235068159839318337707932963406864370383535698289979413
47947541012030977675980362170874007587966867252616489449754889447167849541585
110343268989313413101480173299050407700260030565495427913227178214308213122291
31450983816626206552958848261984261516381634066672943702117649425304763752318
99485331062447692130031107255855546439888154055977883564958132359142927338087
67428312411023388781915883947496384916849708788771234344184844752837572637423
25544496216174497615266021401719855046100124536668761457442159245616594425843
107188500578606764167789258381786435465692139755874842470887454628570078224645
85432348240597543491331793819418565942770716465589977786631596138341620626574
12037322411781289450926895073816823972991107709430679771582673106181813465652
39833405796552065911805911946494163720989660757590679783979739629429716909181
21448138203312407234346879352186673551661078564316279609409834051215807868916
27389443132830685574703372259285505638306365051958458322155275760251720281879
56996511878689016918441836725095752266667127551060209587484715797196280877305
98849354369808397071605258933991233982217158561619301367371878710530729776098
68387628146831786215187923838947184487722194730573796394805740880095262137104
102664467358349486940713300658296038668357039366531271136039506333836830445191
33956756055515978621735790436793462516511322861721731150108484143948327597800
32392121036289039259841012692516751008552447922326451761254590913487098507398
77823289005941930362875139355350256803553744067202464912764676940256581183791
24906806348706353874887541307294642313817133148620536669167002403199626573744
4514750760435597575114451566343484074007681173831099228508714650966484590274
17585368919368966396257805847694704803173531508311968450783900137020032254404
110873957933335560598207323259058598446131782874300094620064917612352882642648
88469022494867856120672500041264841797398238945253863467723273033377323807933
29089984419107932985862894685012634964952577720798254174891870662800574030194
115707008374542935311436284816758079977160162874904873719095528565202473245877
113499073427032015932636997857280877320393855754644663912707574436942089667947
5994285707559916065285825990487242663959108842999470266856428323620396513884
53841182080520480418011728846461638959809030101583331935377008093567272385267
41976518099624839034248634011852779012799145176772522613676206697457093642348
31383512351852703970546032085488851659044641566082670129533097643213632999772
71287458433829023968913760550470267088715538186920493558632945477762608263840
24656267938011721233769628260381466136071974653596689777251275526287794411640
88250688392055210182246870698343291260345914348549147729596023657084694873365
41515580188811206312685679261645617969844060876539486958327275338421970045940
114493249132991957793514080472073408180220113058192738709171411543152847161359
2930330384592116128246857234948269814029812369521443526762562724943809520235
85441294000899104601531326166000617900927104441064199410243095039912618055825
90381809434173710196307058069104184438583977231630887342725270399431965436453
80586202648922160863505111603123469821264506193302582904550661710912560032852
50243542646600021654824250510846612751849333006209899124172839487505449222836
94179716211978226264710597611469949926743598770637648213140265757425569486315
7053120319390051903714731704680196249884737663977477190272887293637740892647
32550639857838546847477162308893950829834696038818522223414887421609159813167
112556666685715066720218790106784260925416077803812919558869705316002636820939
61063035435062839875317993569843845305241729106066219085716594134085034993741
84833546320352556006597036928373076853294459482803183618138077028402027139493
29699230790071338723765425080372735560829294175373214920193267989352863325695
19313570432875987772282414809316263301041002820571611222239680614561538408738
47077884335089184296144318020342588074345411685805890865346080892022409633746
38261272376460736345906031296597282910682551423049133515626935393035825626420
19575067685842647793046456324252225926437016673829686456447178635619035224196
63751511781528337576863446159386964943521976613867413611175434482124673492042
113612702955577923057015609670120256787890847453903763519023565428405186836178
44755989158910085903276655176145459737849210758247678091683694539967894498266
63203051614055308297275620768669343352033811541676861587559186200592969012815
75668687094805736623393297739151088157810501173881367135135498056801154382199
91780420732025346902023820220696641664560817141593366835552858966806754811154
48973225406147798882918604469014869118497589444960045772406053205075133580511
105765100093298979320368403466249029150381667572665980589726014544704131092056
1278667200123559620312814086725802714292349352086565507679331177891024082628
41511187879938408366922177790197586286866982637739363536124325510434510702694
113801787513548399894446526046390199438020038666856273874647391269246543186990
93299953307213804699436580018437007539588582542004584707453327445775091499080
17200382908298664437810769020129237373658099945584571581679374175591912836556
24498785249923497151550557679043988699451232715027761864821191369535520354620
68012938520414252027395381166972622149466514356012532499165766764397755526017
88038967889440014793500206006899789209959900477688796565483166377546542020839
70459421062598318876790790830316982100552555685006985155392415360623379873804
103287676176179154022745219731104022046119499974004260878142225795381878467226
89730742296196524872568487482715154948060445935273869116276260214620588063129
34567079009378499157582382796857139390128739202420272840065334404871521262663
105086260510757625986611983678445057346346909170572485310742690121672246026130
106985965666173635867048379789704478454269977113936291062871316487254270271744
8531896891977063110687392041903445726751146744460467056689651965494165816840
111258754979865834535812914890237432864329976325458110222228500096159430047750
67552816254757892400622001341760491572235853154864279053968701798172039494782
97588077876598693644787434428393707186741901176311387253678468857906096123844
1538460452051051587777393742951910282838786968811397561510759432787288139010
31017924580429063368215093028932805480766852164466863394892394900594047451730
20297679540587656436624934198945098546638605720875984166154539798719400890566
20796725429041912504099139693489981850679738994480613446430426688814907596362
15373482662289995339574479109920203160230805250085679027442805004401235949500
87909928905021492649344874720879399440043757385571843254821875958030433249802
22771444304851305718174606443168867657159521099445971562073025656225150043346
52942028171267165727977429936135575671808812126716290083336024744163723752889
109916207050350117702348022813569886651079914031964936313176659305472892728286
111887389543081996757462391611095831118418639057613195850899991844331752595867
22879788377225127679205615816173732517846213868253659986969776728167849557853
25648853194292661924144181171951671538796695563326765102287815145845477031830
560499278293497721625635353577473110433338668584732143412579505926750531963
48191894813389293477143353112887825358739638374562107127958047605898616005111
80876644192587860742281829160859619874453271480420514346739344338154869468712
114692100437078748363096456905919801793077533644928128739526937469040125320135
96264987355902955923703025369052796102529042338569220196244015128765320950808
74045008518726913528041951068159944487836238857899711558202791307467337432653
26518098699141371636907625918263877751058792947903257312939852519228548926968
34903216188072953979633178004846412469075942163950842454482904470185134817679
110518834318067140065591455951184419811277435014674586299931101606694670349632
20153824198611002073352816500288078622436718592994460111105729152261071480802
37558214465783833024379847628433925447712869737815051445689791576293218448222
80013175547861310813255678792270937108305680870613489438560499104688847703531
105713542359437310958830642489469841502116225376238408655766271392594243004969
62740380299370021591117648637922858442507665590665873010494203063374532458647
60350369081767769959462239322890223518532667040452346303592517232322899188181
78278487394972394690651536266128765341738223871432794918352257538500004399845
25913561504965372416612960224552453596960510764310843716380224572485433070559
32864777432018556558126271651654475900219858599260375013224980369379634281889
39613409146945132567544446975393734846822538526441323258872724405381180532896
92660100218643357294605086163223362160870291234185430069099052244577316994126
50560490212948156816969352410886766384401761519261072228586173075407860630657
106647154098537062264314893501116152948963499396693994987800597326284732039918
37389919689240239364753717444665373625346572624904393425546114967403206672386
68009354063611978311130800193410284713246894851227859317036893532914371192679
7831320589434374352173933860614644553927072916503432116173471759927004032009
115051920407680378961907681672511173898155844918090211037698149464321563286447
114540262527498580970163858945695804172317448238032579737954869817293457851448
66730377195048791578421146245563781516068335720838597356476201390864211009275
75710047071831585363482680266081853205876886503452940387514217872735019606564
3424850151915998671333893828288662732352251684348547740988305174358032607901
101882906137869409948342868275180340624679786914130561733989451387687556522441
33583246248060155991512427146938165167877605733022246467419400843116797086300
84988680723453173006912619292772738190714506093418872873700167694240250982286
64432002695555526221218951089716539689919662815310031623722867768297958748250
60178948592671649267875478330683752681214402214398361450463671313731325025183
30871163741458361683246437211396808723473059770713811552251194281085199971546
95046447918654479324228112406201876531616494902465277048650897975370997503116
13098937506605162687161747278687569468683655334407694631567460210855545049741
51728230532207839775947657342794649041059338972339298141837800877062285252457
3704724304247604861580765455741058080296324516716269830322722294828468785180
54177874461942844990692052764075435657145657318954772671492761169810228304348
26202274609190880553697092666080343586737310782446012213346252719731943711782
21856393624485246524769671867767701141248955219557215417407689464160129802962
14289795099882751463292546415852661176362273815195674466462394496661265761771
21663428587987057290564264777182113126117220996262509506276366177544369116875
48889543974758737143569279011187733819400693720459201378576757328250470593612
31857681612126201318665913592053370295630153735895555288632320944709396201215
8089313292826869132970129028854548695744381809247680439963942428080372710122
60584582526681973616419892228465857319776066614901181977222490186836872673986
28070414327916859673329927879349174019629073272559896155876141392838221518206
27861412604450928544452993597991039222058611220919236511573495313934906584287
45856697737479146206754535359220448934221204713069540282680266963029935693499
115687934449529320370338278463490597172256807586094875175601586630483859134445
24584576055977179740751645360048898466031757380781606039815386177130704905049
70613930761863072491653084507755145490529442819373925085034756560004824478655
74308365996300218723814501226637263759874794937717318108488811003769663533582
17018686806981765022512128445114380549946549968758695963066095284622985211503
100126632611633043185164874135727353776176142894656009718183240531100357597078
107051797571158561920613503256063487001116404541558055112377041069658288925880
38764257492898201997220897372685812294196838050047605212338855005099217769504
57954452107565146683715535928994496710526137709303061681693253805413750944920
84760382526822291973235284569676604541317596064524033396901413738811353106346
81576112450617175630723463890734809566131417670797852746068712341955441200735
274324667302614245185461269959685548335029355030707785403364757814242412842
68892337426986337081443832667858047276636502750632419485308808439276131950774
39629157413943912110858489156118081902110492018741312412186247431205786892442
56816467219290121428914587279472182853370020471637340133369318389785104512069
21657372844887709924147978116046446415369457713784920451728034776386573534259
110624309328792708255242962931473855351666614648266446171496967952494954706667
25828799586706518697720568375156809972171862162338429793244806527934103921016
93768106385046727291974395042252916165167324038226885516610012403338823166666
47172140766316499422132381867802910537892814426944982881248106867355468789466
13450674769157268318839480804206871892168283822391038005386993204181114457487
106663531013573908210082276682031158118252068468748342405813255506771198786322
22476350213185905543815697749107437576126480645643606605288550309247401096627
23292360803829889940621394680175466421793032875300704804990338421704260505990
70097793723501497058252004111620027294869913466764812096952037091104878893989
109739556545145734298988928370519229141737935981319025597471554258156720310344
19633071348503178722023613874851091599898200260633333055275024298121234882325
11329599300893333742131757151517421196765180114308941249743418472145965947272
110762154787658933026134941908023616235910960851205974489963182531827609190358
98264011931078833978732865685432739030781866235446878321389314647291205426321
31874289503260480826278577330763457892483214922689666012613704439850745266184
73447306608928661773924893909142473983697098180722969584265199324828676269986
81160040737587213126059633428328013934868916655349255799647976454760388398208
16890641997291570399323445957612333141612722377927634822377992458142457227826
4664628617793901608778643957330657979096538721887980175880176380628659848874
38822623747002798680213104197244116782129926430203355009415766563315958839686
42964803497558995285913623399190815553277065514573565112631351380813996527693
44064034750236889835833140008408998087707922938116427810086999219967260331161
115222534496251703717723856088366020716954652280622980940925479359275172906225
84405935386907747827032820402290650175733604812894782830761355979824304322490
56679987619519155606253294791117419908521942997911843154337902629995827061464
9003829575079219215681144884494033009436594046744150724526538812049122184813
77780120494195004829002987047152543149838508908421942776012116196112215078592
41541615743677434345351046942876099610066547424729167559995241407066823246698
69448913737249015066948630130668475807616334264035625189332307919314092829152
88244856753364116635732510437507454903787970778804809152401637586433141814983
69455221965463548011118429950019189662915166145417260289355894450879210950871
86173149940088460014676078654237962096260921455456893919236898840452892162987
26333431764124485958754095723850897137704043125463359170102566654620724930439
113166940780969997736491304594008238920502815853780781389736153074721612255512
35967094235797035848498843124637528261577812485510960908192712416931021456902
48640712438389665498724412505897664039956270867744035360216856876945608707237
104607509438200074819726251983631762572170740910486859393399516097850561905441
29083193744838693311989601758929804261228952642431418084011087730178537945660
38542698483740214096304018642549004433644166799665398092271112066445819876142
106600131634083733567339757437449577851005590290121563188188216632930021667888
18555104712742387006855101764551824316498337892591153627726454213846333330187
12833878963684275673417312851867866775371147301400527662092562559818370000704
23705367263018856960066950841160136498688203344895556614213935096713687091863
89385674997905339033718753573256274994768080609064809167310736473844570198364
61591004708577161883112705703017930119135792942821889224136267520034413176080
10534561738955899526872451888498478455269812328426853432226445683851177439303
52583351277358684280727729990610210881490718407483717573411378580993731828230
59218313625928520439114773739872967327501194614903545722164042498972768725343
63244178422658573608197714589975508259532599247350075332189346660817728326882
83591526633511781421055600065616483379815692375917162679360391969994397522989
70698428287294632753458180669513426829026327299223852324022470400473216735789
76913485923473496035846100823662395580030340196973570245364703297078591911297
84340604710389337101810042928128595512731313674137578957586543757448769086997
61780923001274672452313314106619693736747418118668916373806578762584554760266
24192689189161506205224751307958603571537718663730122664622833520157932770013
88803281582420009780210298484880893026024295950852322914000854489527548111455
71912384935653266517316073643744136613343053305529965011804568767623498377777
6858383256751211921004214480808581013259624702801945292609294036042919760873
89615841059754120881133460555261297078959448013388639878233498629797676763279
40263952076024874561743219403364033063897856078997573012866550187934932009776
86685526642788344055244377272021749625998040580909914534235662915818740051271
96324806336909444955119505271333674063813670188858627236710012552181924440298
98127413090195860227339454287777357447985195531553622424420351240947802343345
108659177303480311527217643656680784945010531095781050052549430062649969101924
74235254958866257462324113984693423511633287827952622518288332041205891920544
43110327949862998766271814101693515068847044819312872984165996878253842827021
109935896374893048083314613035436281579039020003237556575343618317503176436037
8589830550427791191307782334627405599828416364206160067325958582284337179714
97000460547027945713816874112922479170467326477765912648321788330192230330091
26426621614271196808961654089096975762363548065802136841668422977179782196850
71892577172545017675431874346429737220709615188443162957869948257002966312015
32205093169499537449348616140452819705853346895677642221750969344680254861029
99550112195842140328303566342756557629743996148247239458648701186444454369665
106023167242257208957327046232783895099025089321018002338364480575470544209858
44103868562973466379228913054666622943412229897493995730147689274791939739528
10252673994916407923359717698733268312585932372109930248199456569082397723437
28888752676897379501492823068365414131469668795637699319765792802948693274420
113186431213378103448454860550587288908305473366890343338502711993054303170434
89565188082296969485640869126275107414628788228934692389374498273858139239398
3199194907159630984457868564926528358837328729819949721019829821368024233241
60612120897774027699156507450685295644512203955694731109467533706805005517867
108476524603922820179350166312295247459156575704794509393495404500856688721685
37159651382832001820969075063569158336452980411712726073779579083901444214128
74178391853310544053612700562052639822385079973942843146517434060955034197783
26290478114213847578466364149207368349613169923208812882129732626617593775175
38417827469625292636134141671025316789243434787659526168605921444232185846002
65572791046078465831900438263647364768636862230225902284846403675438160256985
51979670245335614759431560212466417461767751459504024299614445843969790839984
102774955522633357066010187052914944363297776379982338021466445507533059409310
79258051512519091662641401812209552967801632014555029954955655993309864881272
2679378984914087204314042006531613546430188884619997589263088896017792054382
113618650842948606301454930077958239857792896881767570940709259880935078695220
3938290848398120092597356014373543924158590831850455920186586589038108905337
61636456378110809211590446971920092378576549110469776915716419125297435200256
27522377793243532293700210099894708716468547521577464012955568381036612841422
90044468734765583003531433217544435088127064967306484471423117147839254472646
22776296844921828618611759173585746901080343081245758111755704908494894522726
47266454772409830407333567296292732944364107440747608729671520903947404928910
85027218571383427630909144023816927648328309083237673002325873095933837645043
42385041534025880728409049636947733721370007415439828679817219639360922431324
105093221255976367579199314767955929248058442024953036099771191338528569148372
97363336670426821022833714503452893173241602783564456260602488258630361441464
4953009453046242238000064259717225181831339217225533702576115278407873056256
31716784917801344672729755260942419890149500670121101116171603483396180328742
81079767180608542857600484000143634053467778858649107245749598197416979204540
41964296987275566348972582265079340511082306733049031874829883297914990861877
81307068874073013938020899136056433980848284657610518106083512609956461952360
4633372501810700512135154311288788528270680406891952992942183460018648215784
11778569536204384466267717679150419175196025293858643026880268740160373285334
57973235218518379541183879283901630928125935095286107355227927281888916862620
27058803506244806586485867466884901818906793458170184061389968678494203871699
22111260703789616970538812776471023516108860548450809793104979240534854900668
75104021506226275495822598621483362589503798165621766918817980451847277240033
91570932318728617075639296366560275833608445920522376851520430358329411016655
20321658208410695456109652514568269222044391294194248922967975266416248733533
29740488008623362160684956485767867016029043252634031332923352064655803921094
100872610105499922292719015591209942393636990537855787689726841511996791946353
88436588088572365884822065511611165837691716758582567034081679924976809855120
6452073718694335232226924787274952614986550919965902353010278512451870077087
88851709103410557841145272642612181629924680449308797153351868560127091933265
34412138488991165500277408811003493156257641236574790464242384310903533449418
109988250146723784361432817509569113771505595029192354557482990183224395149258
47674955991229198679845604695589889269784275487036763641111834332665416263932
29599740782968199103487211550288673761098972780895087498073444000421786024151
53716946596066135265446443936325286384329657370751287260721872691920473813583
101807037199092018094332634002645116240586085316213403652850384976934327688192
88798022474776120431172940667451424477167125723340030237011818030393988981192
29908589877717575247129824642812270981431295750032699722053159671704333155970
103564798646927240066610534540927660756066901885199840181010803792367487369720
9872285101241609097175385801315376371779028756213043184499367853205667666283
75701871293303874361784273626096086323452376080771439797242842016906724427189
35172156947403606581518581078997099282239718291076936434099948870271300284295
13573225472813635184964631589264947438424062897552758115814297220297756619603
11700058245674233972759626406581513086148829850574487953753816785778298186313
70239817542059902074952235233177060637467722057291203087260119859953001888012
106069193548692601581068179375294965805757273419858402606059156478543086857982
78961230117915981583785723531069301991145356764341292475723588173126609403548
51813881869361646262034896397528445698761629899942052018352596601615125537237
18199651885424310593288933913270896685845241134240952106389009401988490388535
73463133278416478807178061981474466504111631732554938596370181699838176127906
12097897942374096529301481810937988026821685822891934972762216367121561419351
77406378880912657235052639845892313376412673637612071122833476766060278915433
96671105739277158310625953761236248477547609920231427818205690167566778661909
114626162549891129877277569126352117934312474458977076447518706675852463599611
105841313954607762407900484673645047002977535905021046180309866219575749330685
33356319695310778215987726306732566616477257987414623237586673205136016091989
19759764954156057693532075117362176341002737046884543246755504159116707303580
58965976567159462483753343195118888737325279635785241069917833410450620130678
75630923704138114147589418252060226100890659429966680670133807988884704174386
97434457865628052428947602727611401868468793730023281008127491331094968788957
80249421148051542729960848476613261807524847257056242897052086638310212849480
84109194402990774066496408090713266544060751084055823011283538634785732110064
98431619711211099013957109149031374026831747317518723798436567137340252923408
99079246444008978161227829433771706301339809769684719234176771659069289590760
108842623788822348047618443219537338862030583132368260426717824345548670391769
20267608763292459881036827089299168808879401803458741621915128480592291364900
3566405715330230535881298699909685327547302683883549959832765071404929792757
100169707454650090762852902071942594945906005346457309968557743207262708095446
50398388930184102222684524060306498413472925891988477705223903257021242192857
44067145783218542009883855793445150125390644389649509785078559945246817911439
84145314408862868287373137978770574266983707286230584037833955411760149830755
46295318912437724459301501671082961424326873067714385288537759587971444244490
82892306461370325512196883123725610200183621476651547956502897485883073527157
101409446310268612497045095700140494720702009709430169678650109871291208959292
54956929081362310914009590854202792990380536681549607850640420089680202527598
115024079260457487125865381011527863098699216915999335538015220728442509872538
36199809703575772073018761055451307068593282587125649311440241623953398778909
22805088357895408585324765348488479001662646279533606533479606498361476069118
92771221514552509969443618772744063326097973195008725507578389222498303431478
20262626361859902050632300837836083377758958031632578426428910169229539673526
87744500380061083946527739744807866771441303904280060609711969523501497209462
100525190394548327854266717540273003760202533468088105530319799425846380487576
27615595687753625245255561266474741256449536659988123416105246328641777126123
54821008557884438177214166849025298575626667420498500681203519659835706937135
66397590437148854688916086926122236605809720821899240483757133881556534319895
49646344991123207556481797249446770831333011701725481134570103539001565790289
37516011944772116656407734570688623270522279656821256575189857309434269722594
49200428648205432695007812821609393066854372849305522975457743074299381825464
35049725342957781867049140994051932959734973455105417348893343484700681821842
46997780922181298095096889651356229343486759905123144747269712168540379657076
67290005361080634355063352772989490843781466889393345278649644911538142464056
64530836244504055578323161016960225736223686787654862801226686138255096160584
54507263608437832136808993258650250910716610546100244067468787270786354774350
37782133885839806340332273931484696855199140507332225251727862005217462985026
62829708981729467879141116072569333316416351313333828201790474196265001853561
47006982001739567962732322277788127728725816526463362589523060822065619649586
70417586878333968798338997732005083254504558325680936939654494594997327603876
84296708292528159917243844228110870277292472720375142416089812776062642533319
85096195797616966294563124374987939185506328731047794398967698982651640269282
57207110849775777811844491223456019359524472056099986117538553185860055662440
28596567163152176787801397195398398200869795859424893535805471575140893228506
15856194513004022495615294284399211675666256705553479179369002766981571585066
81241255963975807245994786938027967325777060831727785618782305015691735383716
41227474388550977696538516090250681175121467988579887780213840291722895868519
106628592612025871944029254641350281883966175575313457305441008250463089850712
10449740728777405260712924827150388242167860682936627818870068156488407026140
112123411229175535819679150344548905230630941102789272565534342482279365555898
61804992767040624702184640865693415092355733265778528535421125027611660048979
18198904280810632794873247338087786090719587256444858032024933754665482481594
13985877725524646847272469738650369839284876244883666856126625521449533086781
7651746588878151119218982134961003270663601485051527064970589785149382534345
62677699911589521796285015133018631668491369402699275081729147771982968832194
57033327434987092296241883769929960339235715830858966668243835173724309952290
86754018845423124213838567111129996183471935843087595357136073701942989751084
59712385382707289503910782769680826650686965351808453344753131695961404229265
106939080002813850434331126042006101889643599863211043357254272671170619727024
52509796490078618557066598100866787177701202740985453250403874426375948867169
59228936030787170684510047847222882421125847699890599988186947646198897254400
100831088872285732480883025465808776367828095994563235806606907032908717403495
23339541806110548016911438235398871199653771179453852165013647587713160960289
66672370158509926202191926899804396611884516027233334970288390397266320329064
108748926768132410906866427716129460559346872845075249480823275209588873549173
74519493807636939930676986350114563196673239328679677416731857474319981495359
106001666210899687629443167792804498800176098600706478229706075381541288895989
44593489029354794229267700116850835363648208573156828127726786347029222559368
65686019963972193586913893095804650212042173601695252049157198363739837616386
42972348476882337703573559087027056755861994432336488853007445963715611353022
68690086409189153428284056313888971196940090582142860190784528055594230350175
48217921216508276984037178654746015206394331647932993723628450589306876548092
106827884124984689349918148818494539951428893208509493760371343105292291004953
68110145583734498616946270534535982909659930168756011378181374076023263347937
87832163891338779729501890611908370212631831268751376701223358831026175495058
22969351712060334838174654198602809890920262415052772095575037517753509418563
62450913435025062697936873814152661390183928920455681383913173946366626502363
94878021684776410331489462125039284338286012320156977265715313400892518019753
110484152359184003986042886602632833822477570600910581928432078930097868588313
30695063565439459623343798561314706364413069084437501254423075299717874203334
109693295338687057068740227219122570500333611295759592086296791286209120523953
69763210801289780586554019742638324497345352251852619798104387788555768131163
82292958585104310942768045929106288953871532815323604906508622725622238224216
17171830528767890514084492238459728724371064427069198565110948391258913982796
78281787031118469634452594484313007547219127631746454901411061611053541121884
53402377505939021613700259637349954256854410439050864859850948471386429967557
63748932087389581563032494655786435001487133125545080356983070224001190004414
43241338860792031655874064915382876897282280303154195432408601582045122397113
30368902965490698843992429682584599535052647786530504309008705963644900750312
108873648164752834622004304043927316662316830312685062251991831164224138262554
1304530173464218384450131323777562668675752051122876785318104821593411020322
55489356470153588859314652266376933465974686050883235748448710578573762782106
